ckpd_Fried_Chicken500.tsv
clf.best_estimator_:SVC(C=1.0, cache_size=200, class_weight=None, coef0=0.0,
  decision_function_shape='ovr', degree=3, gamma=100000, kernel='rbf',
  max_iter=-1, probability=False, random_state=None, shrinking=True,
  tol=0.001, verbose=False)
clf.best_params_{'kernel': 'rbf', 'C': 1.0, 'gamma': 100000}
clf.best_score_0.944
1500.0	0.0
0.0	500.0

ckpd_Hamburger_Steak500.tsv
clf.best_estimator_:SVC(C=0.01, cache_size=200, class_weight=None, coef0=0.0,
  decision_function_shape='ovr', degree=3, gamma=100000, kernel='rbf',
  max_iter=-1, probability=False, random_state=None, shrinking=True,
  tol=0.001, verbose=False)
clf.best_params_{'kernel': 'rbf', 'C': 0.01, 'gamma': 100000}
clf.best_score_0.95
1500.0	0.0
0.0	500.0

ckpd_Miso_Soup500.tsv
clf.best_estimator_:SVC(C=1.0, cache_size=200, class_weight=None, coef0=0.0,
  decision_function_shape='ovr', degree=3, gamma=100000, kernel='rbf',
  max_iter=-1, probability=False, random_state=None, shrinking=True,
  tol=0.001, verbose=False)
clf.best_params_{'kernel': 'rbf', 'C': 1.0, 'gamma': 100000}
clf.best_score_0.947
1500.0	0.0
0.0	500.0

ckpd_Potage500.tsv
clf.best_estimator_:SVC(C=0.01, cache_size=200, class_weight=None, coef0=0.0,
  decision_function_shape='ovr', degree=3, gamma=100000, kernel='rbf',
  max_iter=-1, probability=False, random_state=None, shrinking=True,
  tol=0.001, verbose=False)
clf.best_params_{'kernel': 'rbf', 'C': 0.01, 'gamma': 100000}
clf.best_score_0.937
1500.0	0.0
0.0	500.0

